%YAML 1.1
%TAG !u! tag:unity3d.com,2011:
--- !u!21 &2100000
Material:
  serializedVersion: 6
  m_ObjectHideFlags: 0
  m_CorrespondingSourceObject: {fileID: 0}
  m_PrefabInstance: {fileID: 0}
  m_PrefabAsset: {fileID: 0}
  m_Name: Liquid03
  m_Shader: {fileID: -6465566751694194690, guid: f054c51a131e8144eb3575d249a0a918, type: 3}
  m_ShaderKeywords: 
  m_LightmapFlags: 4
  m_EnableInstancingVariants: 0
  m_DoubleSidedGI: 0
  m_CustomRenderQueue: -1
  stringTagMap: {}
  disabledShaderPasses: []
  m_SavedProperties:
    serializedVersion: 3
    m_TexEnvs:
    - unity_Lightmaps:
        m_Texture: {fileID: 0}
        m_Scale: {x: 1, y: 1}
        m_Offset: {x: 0, y: 0}
    - unity_LightmapsInd:
        m_Texture: {fileID: 0}
        m_Scale: {x: 1, y: 1}
        m_Offset: {x: 0, y: 0}
    - unity_ShadowMasks:
        m_Texture: {fileID: 0}
        m_Scale: {x: 1, y: 1}
        m_Offset: {x: 0, y: 0}
    m_Floats:
    - Vector1_afbed82321df45abb1eccdfcb1bda448: 0.643
    - Vector1_c1e09e92b97a4befb407f25bb68515b5: 0.34
    - _WobbleX: 0
    - _WobbleZ: 0
    m_Colors:
    - Color_7ec25c65ad6847798d1723ac6534f30b: {r: 1.3464973, g: 1.7616467, b: 0.63984334, a: 1}
    - Color_7fd4ecd9480b48a184704b0225ff2fd5: {r: 0.10883884, g: 0.7254902, b: 0.105882324, a: 1}
    - Color_faa2bfa9e6484e90bfe7e88ebc782e57: {r: 1.0580297, g: 1.4146688, b: 0.3150313, a: 1}
  m_BuildTextureStacks: []
