%YAML 1.1
%TAG !u! tag:unity3d.com,2011:
--- !u!21 &2100000
Material:
  serializedVersion: 6
  m_ObjectHideFlags: 0
  m_CorrespondingSourceObject: {fileID: 0}
  m_PrefabInstance: {fileID: 0}
  m_PrefabAsset: {fileID: 0}
  m_Name: Liquid01
  m_Shader: {fileID: -6465566751694194690, guid: f054c51a131e8144eb3575d249a0a918, type: 3}
  m_ShaderKeywords: 
  m_LightmapFlags: 4
  m_EnableInstancingVariants: 0
  m_DoubleSidedGI: 0
  m_CustomRenderQueue: -1
  stringTagMap: {}
  disabledShaderPasses: []
  m_SavedProperties:
    serializedVersion: 3
    m_TexEnvs:
    - unity_Lightmaps:
        m_Texture: {fileID: 0}
        m_Scale: {x: 1, y: 1}
        m_Offset: {x: 0, y: 0}
    - unity_LightmapsInd:
        m_Texture: {fileID: 0}
        m_Scale: {x: 1, y: 1}
        m_Offset: {x: 0, y: 0}
    - unity_ShadowMasks:
        m_Texture: {fileID: 0}
        m_Scale: {x: 1, y: 1}
        m_Offset: {x: 0, y: 0}
    m_Ints: []
    m_Floats:
    - Vector1_a258fdbdd5a540fd8458cc3f5abc6553: 65.22
    - Vector1_afbed82321df45abb1eccdfcb1bda448: 0.596
    - Vector1_c1e09e92b97a4befb407f25bb68515b5: 0
    - _WobbleX: 0
    - _WobbleZ: 0
    m_Colors:
    - Color_7ec25c65ad6847798d1723ac6534f30b: {r: 1.1486983, g: 1.1486983, b: 1.1486983, a: 1}
    - Color_7fd4ecd9480b48a184704b0225ff2fd5: {r: 0.13456212, g: 0.48841074, b: 0.922, a: 1}
    - Color_faa2bfa9e6484e90bfe7e88ebc782e57: {r: 0.3150313, g: 1.0758616, b: 1.4146688, a: 1}
    - Vector2_db1932b72a4b485299a91d4c17381ffe: {r: 0.17, g: -0.07, b: 0, a: 0}
  m_BuildTextureStacks: []
