%YAML 1.1
%TAG !u! tag:unity3d.com,2011:
--- !u!29 &1
OcclusionCullingSettings:
  m_ObjectHideFlags: 0
  serializedVersion: 2
  m_OcclusionBakeSettings:
    smallestOccluder: 5
    smallestHole: 0.25
    backfaceThreshold: 100
  m_SceneGUID: 00000000000000000000000000000000
  m_OcclusionCullingData: {fileID: 0}
--- !u!104 &2
RenderSettings:
  m_ObjectHideFlags: 0
  serializedVersion: 9
  m_Fog: 0
  m_FogColor: {r: 0.5, g: 0.5, b: 0.5, a: 1}
  m_FogMode: 3
  m_FogDensity: 0.01
  m_LinearFogStart: 0
  m_LinearFogEnd: 300
  m_AmbientSkyColor: {r: 0.212, g: 0.227, b: 0.259, a: 1}
  m_AmbientEquatorColor: {r: 0.114, g: 0.125, b: 0.133, a: 1}
  m_AmbientGroundColor: {r: 0.047, g: 0.043, b: 0.035, a: 1}
  m_AmbientIntensity: 1
  m_AmbientMode: 0
  m_SubtractiveShadowColor: {r: 0.42, g: 0.478, b: 0.627, a: 1}
  m_SkyboxMaterial: {fileID: 10304, guid: 0000000000000000f000000000000000, type: 0}
  m_HaloStrength: 0.5
  m_FlareStrength: 1
  m_FlareFadeSpeed: 3
  m_HaloTexture: {fileID: 0}
  m_SpotCookie: {fileID: 10001, guid: 0000000000000000e000000000000000, type: 0}
  m_DefaultReflectionMode: 0
  m_DefaultReflectionResolution: 128
  m_ReflectionBounces: 1
  m_ReflectionIntensity: 1
  m_CustomReflection: {fileID: 0}
  m_Sun: {fileID: 0}
  m_IndirectSpecularColor: {r: 0, g: 0, b: 0, a: 1}
  m_UseRadianceAmbientProbe: 0
--- !u!157 &3
LightmapSettings:
  m_ObjectHideFlags: 0
  serializedVersion: 12
  m_GIWorkflowMode: 0
  m_GISettings:
    serializedVersion: 2
    m_BounceScale: 1
    m_IndirectOutputScale: 1
    m_AlbedoBoost: 1
    m_EnvironmentLightingMode: 0
    m_EnableBakedLightmaps: 1
    m_EnableRealtimeLightmaps: 1
  m_LightmapEditorSettings:
    serializedVersion: 12
    m_Resolution: 2
    m_BakeResolution: 40
    m_AtlasSize: 1024
    m_AO: 0
    m_AOMaxDistance: 1
    m_CompAOExponent: 1
    m_CompAOExponentDirect: 0
    m_ExtractAmbientOcclusion: 0
    m_Padding: 2
    m_LightmapParameters: {fileID: 0}
    m_LightmapsBakeMode: 1
    m_TextureCompression: 1
    m_FinalGather: 0
    m_FinalGatherFiltering: 1
    m_FinalGatherRayCount: 256
    m_ReflectionCompression: 2
    m_MixedBakeMode: 1
    m_BakeBackend: 0
    m_PVRSampling: 1
    m_PVRDirectSampleCount: 32
    m_PVRSampleCount: 512
    m_PVRBounces: 2
    m_PVREnvironmentSampleCount: 512
    m_PVREnvironmentReferencePointCount: 2048
    m_PVRFilteringMode: 0
    m_PVRDenoiserTypeDirect: 0
    m_PVRDenoiserTypeIndirect: 0
    m_PVRDenoiserTypeAO: 0
    m_PVRFilterTypeDirect: 0
    m_PVRFilterTypeIndirect: 0
    m_PVRFilterTypeAO: 0
    m_PVREnvironmentMIS: 0
    m_PVRCulling: 1
    m_PVRFilteringGaussRadiusDirect: 1
    m_PVRFilteringGaussRadiusIndirect: 5
    m_PVRFilteringGaussRadiusAO: 2
    m_PVRFilteringAtrousPositionSigmaDirect: 0.5
    m_PVRFilteringAtrousPositionSigmaIndirect: 2
    m_PVRFilteringAtrousPositionSigmaAO: 1
    m_ExportTrainingData: 0
    m_TrainingDataDestination: TrainingData
    m_LightProbeSampleCountMultiplier: 4
  m_LightingDataAsset: {fileID: 0}
  m_LightingSettings: {fileID: 4890085278179872738, guid: 74a01c92e9a034c4ebe0d806f3fd0025, type: 2}
--- !u!196 &4
NavMeshSettings:
  serializedVersion: 2
  m_ObjectHideFlags: 0
  m_BuildSettings:
    serializedVersion: 2
    agentTypeID: 0
    agentRadius: 0.5
    agentHeight: 2
    agentSlope: 45
    agentClimb: 0.4
    ledgeDropHeight: 0
    maxJumpAcrossDistance: 0
    minRegionArea: 2
    manualCellSize: 0
    cellSize: 0.16666667
    manualTileSize: 0
    tileSize: 256
    accuratePlacement: 0
    maxJobWorkers: 0
    preserveTilesOutsideBounds: 0
    debug:
      m_Flags: 0
  m_NavMeshData: {fileID: 0}
--- !u!1001 &123835824
PrefabInstance:
  m_ObjectHideFlags: 0
  serializedVersion: 2
  m_Modification:
    m_TransformParent: {fileID: 0}
    m_Modifications:
    - target: {fileID: 4479084676281656, guid: 31805c41f7dac8d478aee32600308a90, type: 3}
      propertyPath: m_RootOrder
      value: 7
      objectReference: {fileID: 0}
    - target: {fileID: 4479084676281656, guid: 31805c41f7dac8d478aee32600308a90, type: 3}
      propertyPath: m_LocalPosition.x
      value: -3.11
      objectReference: {fileID: 0}
    - target: {fileID: 4479084676281656, guid: 31805c41f7dac8d478aee32600308a90, type: 3}
      propertyPath: m_LocalPosition.y
      value: -2.83
      objectReference: {fileID: 0}
    - target: {fileID: 4479084676281656, guid: 31805c41f7dac8d478aee32600308a90, type: 3}
      propertyPath: m_LocalPosition.z
      value: 9.03
      objectReference: {fileID: 0}
    - target: {fileID: 4479084676281656, guid: 31805c41f7dac8d478aee32600308a90, type: 3}
      propertyPath: m_LocalRotation.w
      value: 1
      objectReference: {fileID: 0}
    - target: {fileID: 4479084676281656, guid: 31805c41f7dac8d478aee32600308a90, type: 3}
      propertyPath: m_LocalRotation.x
      value: -0.00000003774895
      objectReference: {fileID: 0}
    - target: {fileID: 4479084676281656, guid: 31805c41f7dac8d478aee32600308a90, type: 3}
      propertyPath: m_LocalRotation.y
      value: 0
      objectReference: {fileID: 0}
    - target: {fileID: 4479084676281656, guid: 31805c41f7dac8d478aee32600308a90, type: 3}
      propertyPath: m_LocalRotation.z
      value: -0
      objectReference: {fileID: 0}
    m_RemovedComponents: []
  m_SourcePrefab: {fileID: 100100000, guid: 31805c41f7dac8d478aee32600308a90, type: 3}
--- !u!1001 &164246611
PrefabInstance:
  m_ObjectHideFlags: 0
  serializedVersion: 2
  m_Modification:
    m_TransformParent: {fileID: 0}
    m_Modifications:
    - target: {fileID: 4690511350999228, guid: f9963ebeb07cb7846bbb116a6fb4e1e2, type: 3}
      propertyPath: m_RootOrder
      value: 9
      objectReference: {fileID: 0}
    - target: {fileID: 4690511350999228, guid: f9963ebeb07cb7846bbb116a6fb4e1e2, type: 3}
      propertyPath: m_LocalPosition.x
      value: -3.54
      objectReference: {fileID: 0}
    - target: {fileID: 4690511350999228, guid: f9963ebeb07cb7846bbb116a6fb4e1e2, type: 3}
      propertyPath: m_LocalPosition.y
      value: -2.24
      objectReference: {fileID: 0}
    - target: {fileID: 4690511350999228, guid: f9963ebeb07cb7846bbb116a6fb4e1e2, type: 3}
      propertyPath: m_LocalPosition.z
      value: 10.875
      objectReference: {fileID: 0}
    - target: {fileID: 4690511350999228, guid: f9963ebeb07cb7846bbb116a6fb4e1e2, type: 3}
      propertyPath: m_LocalRotation.w
      value: 1
      objectReference: {fileID: 0}
    - target: {fileID: 4690511350999228, guid: f9963ebeb07cb7846bbb116a6fb4e1e2, type: 3}
      propertyPath: m_LocalRotation.x
      value: -0.00000003774895
      objectReference: {fileID: 0}
    - target: {fileID: 4690511350999228, guid: f9963ebeb07cb7846bbb116a6fb4e1e2, type: 3}
      propertyPath: m_LocalRotation.y
      value: 0
      objectReference: {fileID: 0}
    - target: {fileID: 4690511350999228, guid: f9963ebeb07cb7846bbb116a6fb4e1e2, type: 3}
      propertyPath: m_LocalRotation.z
      value: -0
      objectReference: {fileID: 0}
    m_RemovedComponents: []
  m_SourcePrefab: {fileID: 100100000, guid: f9963ebeb07cb7846bbb116a6fb4e1e2, type: 3}
--- !u!1001 &184240020
PrefabInstance:
  m_ObjectHideFlags: 0
  serializedVersion: 2
  m_Modification:
    m_TransformParent: {fileID: 0}
    m_Modifications:
    - target: {fileID: 4079657690167600, guid: e85eb34fbf3cc5c45a49009ce670c14d, type: 3}
      propertyPath: m_RootOrder
      value: 6
      objectReference: {fileID: 0}
    - target: {fileID: 4079657690167600, guid: e85eb34fbf3cc5c45a49009ce670c14d, type: 3}
      propertyPath: m_LocalPosition.x
      value: -3.319
      objectReference: {fileID: 0}
    - target: {fileID: 4079657690167600, guid: e85eb34fbf3cc5c45a49009ce670c14d, type: 3}
      propertyPath: m_LocalPosition.y
      value: -2.542
      objectReference: {fileID: 0}
    - target: {fileID: 4079657690167600, guid: e85eb34fbf3cc5c45a49009ce670c14d, type: 3}
      propertyPath: m_LocalPosition.z
      value: 9.954
      objectReference: {fileID: 0}
    - target: {fileID: 4079657690167600, guid: e85eb34fbf3cc5c45a49009ce670c14d, type: 3}
      propertyPath: m_LocalRotation.w
      value: 1
      objectReference: {fileID: 0}
    - target: {fileID: 4079657690167600, guid: e85eb34fbf3cc5c45a49009ce670c14d, type: 3}
      propertyPath: m_LocalRotation.x
      value: 0
      objectReference: {fileID: 0}
    - target: {fileID: 4079657690167600, guid: e85eb34fbf3cc5c45a49009ce670c14d, type: 3}
      propertyPath: m_LocalRotation.y
      value: 0
      objectReference: {fileID: 0}
    - target: {fileID: 4079657690167600, guid: e85eb34fbf3cc5c45a49009ce670c14d, type: 3}
      propertyPath: m_LocalRotation.z
      value: 0
      objectReference: {fileID: 0}
    m_RemovedComponents: []
  m_SourcePrefab: {fileID: 100100000, guid: e85eb34fbf3cc5c45a49009ce670c14d, type: 3}
--- !u!1001 &760174288
PrefabInstance:
  m_ObjectHideFlags: 0
  serializedVersion: 2
  m_Modification:
    m_TransformParent: {fileID: 0}
    m_Modifications:
    - target: {fileID: 4508050771134228, guid: 669679f799484624f86f2ca3427a8be8, type: 3}
      propertyPath: m_RootOrder
      value: 2
      objectReference: {fileID: 0}
    - target: {fileID: 4508050771134228, guid: 669679f799484624f86f2ca3427a8be8, type: 3}
      propertyPath: m_LocalPosition.x
      value: -6.22
      objectReference: {fileID: 0}
    - target: {fileID: 4508050771134228, guid: 669679f799484624f86f2ca3427a8be8, type: 3}
      propertyPath: m_LocalPosition.y
      value: -2.85
      objectReference: {fileID: 0}
    - target: {fileID: 4508050771134228, guid: 669679f799484624f86f2ca3427a8be8, type: 3}
      propertyPath: m_LocalPosition.z
      value: 5.224829
      objectReference: {fileID: 0}
    - target: {fileID: 4508050771134228, guid: 669679f799484624f86f2ca3427a8be8, type: 3}
      propertyPath: m_LocalRotation.w
      value: 1
      objectReference: {fileID: 0}
    - target: {fileID: 4508050771134228, guid: 669679f799484624f86f2ca3427a8be8, type: 3}
      propertyPath: m_LocalRotation.x
      value: -0.00000003774895
      objectReference: {fileID: 0}
    - target: {fileID: 4508050771134228, guid: 669679f799484624f86f2ca3427a8be8, type: 3}
      propertyPath: m_LocalRotation.y
      value: 0
      objectReference: {fileID: 0}
    - target: {fileID: 4508050771134228, guid: 669679f799484624f86f2ca3427a8be8, type: 3}
      propertyPath: m_LocalRotation.z
      value: -0
      objectReference: {fileID: 0}
    m_RemovedComponents: []
  m_SourcePrefab: {fileID: 100100000, guid: 669679f799484624f86f2ca3427a8be8, type: 3}
--- !u!1001 &774860612
PrefabInstance:
  m_ObjectHideFlags: 0
  serializedVersion: 2
  m_Modification:
    m_TransformParent: {fileID: 0}
    m_Modifications:
    - target: {fileID: 4424770089882442, guid: 58de2216369e0d14c9daa185bf9e7422, type: 3}
      propertyPath: m_LocalPosition.y
      value: 0.139
      objectReference: {fileID: 0}
    - target: {fileID: 4424770089882442, guid: 58de2216369e0d14c9daa185bf9e7422, type: 3}
      propertyPath: m_LocalPosition.z
      value: 0.219
      objectReference: {fileID: 0}
    - target: {fileID: 4812138058650102, guid: 58de2216369e0d14c9daa185bf9e7422, type: 3}
      propertyPath: m_RootOrder
      value: 5
      objectReference: {fileID: 0}
    - target: {fileID: 4812138058650102, guid: 58de2216369e0d14c9daa185bf9e7422, type: 3}
      propertyPath: m_LocalPosition.x
      value: -3.65
      objectReference: {fileID: 0}
    - target: {fileID: 4812138058650102, guid: 58de2216369e0d14c9daa185bf9e7422, type: 3}
      propertyPath: m_LocalPosition.y
      value: -2.4487891
      objectReference: {fileID: 0}
    - target: {fileID: 4812138058650102, guid: 58de2216369e0d14c9daa185bf9e7422, type: 3}
      propertyPath: m_LocalPosition.z
      value: 7.95
      objectReference: {fileID: 0}
    - target: {fileID: 4812138058650102, guid: 58de2216369e0d14c9daa185bf9e7422, type: 3}
      propertyPath: m_LocalRotation.w
      value: 1
      objectReference: {fileID: 0}
    - target: {fileID: 4812138058650102, guid: 58de2216369e0d14c9daa185bf9e7422, type: 3}
      propertyPath: m_LocalRotation.x
      value: 0
      objectReference: {fileID: 0}
    - target: {fileID: 4812138058650102, guid: 58de2216369e0d14c9daa185bf9e7422, type: 3}
      propertyPath: m_LocalRotation.y
      value: 0
      objectReference: {fileID: 0}
    - target: {fileID: 4812138058650102, guid: 58de2216369e0d14c9daa185bf9e7422, type: 3}
      propertyPath: m_LocalRotation.z
      value: 0
      objectReference: {fileID: 0}
    m_RemovedComponents: []
  m_SourcePrefab: {fileID: 100100000, guid: 58de2216369e0d14c9daa185bf9e7422, type: 3}
--- !u!1001 &800441815
PrefabInstance:
  m_ObjectHideFlags: 0
  serializedVersion: 2
  m_Modification:
    m_TransformParent: {fileID: 0}
    m_Modifications:
    - target: {fileID: 4954684548412172, guid: 4f235d410f2807b42800587d271f09e5, type: 3}
      propertyPath: m_RootOrder
      value: 1
      objectReference: {fileID: 0}
    - target: {fileID: 4954684548412172, guid: 4f235d410f2807b42800587d271f09e5, type: 3}
      propertyPath: m_LocalPosition.x
      value: -6.86
      objectReference: {fileID: 0}
    - target: {fileID: 4954684548412172, guid: 4f235d410f2807b42800587d271f09e5, type: 3}
      propertyPath: m_LocalPosition.y
      value: -2.22
      objectReference: {fileID: 0}
    - target: {fileID: 4954684548412172, guid: 4f235d410f2807b42800587d271f09e5, type: 3}
      propertyPath: m_LocalPosition.z
      value: 8.28
      objectReference: {fileID: 0}
    - target: {fileID: 4954684548412172, guid: 4f235d410f2807b42800587d271f09e5, type: 3}
      propertyPath: m_LocalRotation.w
      value: 1
      objectReference: {fileID: 0}
    - target: {fileID: 4954684548412172, guid: 4f235d410f2807b42800587d271f09e5, type: 3}
      propertyPath: m_LocalRotation.x
      value: -0.00000003774895
      objectReference: {fileID: 0}
    - target: {fileID: 4954684548412172, guid: 4f235d410f2807b42800587d271f09e5, type: 3}
      propertyPath: m_LocalRotation.y
      value: -0
      objectReference: {fileID: 0}
    - target: {fileID: 4954684548412172, guid: 4f235d410f2807b42800587d271f09e5, type: 3}
      propertyPath: m_LocalRotation.z
      value: -0
      objectReference: {fileID: 0}
    m_RemovedComponents: []
  m_SourcePrefab: {fileID: 100100000, guid: 4f235d410f2807b42800587d271f09e5, type: 3}
--- !u!1001 &1317147919
PrefabInstance:
  m_ObjectHideFlags: 0
  serializedVersion: 2
  m_Modification:
    m_TransformParent: {fileID: 0}
    m_Modifications:
    - target: {fileID: 4998047054848656, guid: 51575859ce98c794abfd0277386c7ce5, type: 3}
      propertyPath: m_RootOrder
      value: 12
      objectReference: {fileID: 0}
    - target: {fileID: 4998047054848656, guid: 51575859ce98c794abfd0277386c7ce5, type: 3}
      propertyPath: m_LocalPosition.x
      value: -3.29
      objectReference: {fileID: 0}
    - target: {fileID: 4998047054848656, guid: 51575859ce98c794abfd0277386c7ce5, type: 3}
      propertyPath: m_LocalPosition.y
      value: -2.46
      objectReference: {fileID: 0}
    - target: {fileID: 4998047054848656, guid: 51575859ce98c794abfd0277386c7ce5, type: 3}
      propertyPath: m_LocalPosition.z
      value: 7.18
      objectReference: {fileID: 0}
    - target: {fileID: 4998047054848656, guid: 51575859ce98c794abfd0277386c7ce5, type: 3}
      propertyPath: m_LocalRotation.w
      value: 1
      objectReference: {fileID: 0}
    - target: {fileID: 4998047054848656, guid: 51575859ce98c794abfd0277386c7ce5, type: 3}
      propertyPath: m_LocalRotation.x
      value: -0.00000003774895
      objectReference: {fileID: 0}
    - target: {fileID: 4998047054848656, guid: 51575859ce98c794abfd0277386c7ce5, type: 3}
      propertyPath: m_LocalRotation.y
      value: 0
      objectReference: {fileID: 0}
    - target: {fileID: 4998047054848656, guid: 51575859ce98c794abfd0277386c7ce5, type: 3}
      propertyPath: m_LocalRotation.z
      value: -0
      objectReference: {fileID: 0}
    m_RemovedComponents: []
  m_SourcePrefab: {fileID: 100100000, guid: 51575859ce98c794abfd0277386c7ce5, type: 3}
--- !u!1001 &1363934687
PrefabInstance:
  m_ObjectHideFlags: 0
  serializedVersion: 2
  m_Modification:
    m_TransformParent: {fileID: 0}
    m_Modifications:
    - target: {fileID: 4682358280755390, guid: 43374f02c65eea84ca9c2bf34a6af4b1, type: 3}
      propertyPath: m_RootOrder
      value: 11
      objectReference: {fileID: 0}
    - target: {fileID: 4682358280755390, guid: 43374f02c65eea84ca9c2bf34a6af4b1, type: 3}
      propertyPath: m_LocalPosition.x
      value: -3.29
      objectReference: {fileID: 0}
    - target: {fileID: 4682358280755390, guid: 43374f02c65eea84ca9c2bf34a6af4b1, type: 3}
      propertyPath: m_LocalPosition.y
      value: -2.4
      objectReference: {fileID: 0}
    - target: {fileID: 4682358280755390, guid: 43374f02c65eea84ca9c2bf34a6af4b1, type: 3}
      propertyPath: m_LocalPosition.z
      value: 6.38
      objectReference: {fileID: 0}
    - target: {fileID: 4682358280755390, guid: 43374f02c65eea84ca9c2bf34a6af4b1, type: 3}
      propertyPath: m_LocalRotation.w
      value: 1
      objectReference: {fileID: 0}
    - target: {fileID: 4682358280755390, guid: 43374f02c65eea84ca9c2bf34a6af4b1, type: 3}
      propertyPath: m_LocalRotation.x
      value: -0.00000003774895
      objectReference: {fileID: 0}
    - target: {fileID: 4682358280755390, guid: 43374f02c65eea84ca9c2bf34a6af4b1, type: 3}
      propertyPath: m_LocalRotation.y
      value: 0
      objectReference: {fileID: 0}
    - target: {fileID: 4682358280755390, guid: 43374f02c65eea84ca9c2bf34a6af4b1, type: 3}
      propertyPath: m_LocalRotation.z
      value: -0
      objectReference: {fileID: 0}
    m_RemovedComponents: []
  m_SourcePrefab: {fileID: 100100000, guid: 43374f02c65eea84ca9c2bf34a6af4b1, type: 3}
--- !u!1001 &1472100806
PrefabInstance:
  m_ObjectHideFlags: 0
  serializedVersion: 2
  m_Modification:
    m_TransformParent: {fileID: 0}
    m_Modifications:
    - target: {fileID: 4345901071339074, guid: 6d6b709c20acb1840a72d83aba78580e, type: 3}
      propertyPath: m_RootOrder
      value: 8
      objectReference: {fileID: 0}
    - target: {fileID: 4345901071339074, guid: 6d6b709c20acb1840a72d83aba78580e, type: 3}
      propertyPath: m_LocalPosition.x
      value: -3.232
      objectReference: {fileID: 0}
    - target: {fileID: 4345901071339074, guid: 6d6b709c20acb1840a72d83aba78580e, type: 3}
      propertyPath: m_LocalPosition.y
      value: -2.594
      objectReference: {fileID: 0}
    - target: {fileID: 4345901071339074, guid: 6d6b709c20acb1840a72d83aba78580e, type: 3}
      propertyPath: m_LocalPosition.z
      value: 2.73
      objectReference: {fileID: 0}
    - target: {fileID: 4345901071339074, guid: 6d6b709c20acb1840a72d83aba78580e, type: 3}
      propertyPath: m_LocalRotation.w
      value: 1
      objectReference: {fileID: 0}
    - target: {fileID: 4345901071339074, guid: 6d6b709c20acb1840a72d83aba78580e, type: 3}
      propertyPath: m_LocalRotation.x
      value: 0
      objectReference: {fileID: 0}
    - target: {fileID: 4345901071339074, guid: 6d6b709c20acb1840a72d83aba78580e, type: 3}
      propertyPath: m_LocalRotation.y
      value: 0
      objectReference: {fileID: 0}
    - target: {fileID: 4345901071339074, guid: 6d6b709c20acb1840a72d83aba78580e, type: 3}
      propertyPath: m_LocalRotation.z
      value: 0
      objectReference: {fileID: 0}
    m_RemovedComponents: []
  m_SourcePrefab: {fileID: 100100000, guid: 6d6b709c20acb1840a72d83aba78580e, type: 3}
--- !u!1001 &1887415565
PrefabInstance:
  m_ObjectHideFlags: 0
  serializedVersion: 2
  m_Modification:
    m_TransformParent: {fileID: 0}
    m_Modifications:
    - target: {fileID: 4273250617847128, guid: f383356d4eb91f44daddce1e70077112, type: 3}
      propertyPath: m_RootOrder
      value: 10
      objectReference: {fileID: 0}
    - target: {fileID: 4273250617847128, guid: f383356d4eb91f44daddce1e70077112, type: 3}
      propertyPath: m_LocalPosition.x
      value: -3.29
      objectReference: {fileID: 0}
    - target: {fileID: 4273250617847128, guid: f383356d4eb91f44daddce1e70077112, type: 3}
      propertyPath: m_LocalPosition.y
      value: -2.43
      objectReference: {fileID: 0}
    - target: {fileID: 4273250617847128, guid: f383356d4eb91f44daddce1e70077112, type: 3}
      propertyPath: m_LocalPosition.z
      value: 5.59
      objectReference: {fileID: 0}
    - target: {fileID: 4273250617847128, guid: f383356d4eb91f44daddce1e70077112, type: 3}
      propertyPath: m_LocalRotation.w
      value: 1
      objectReference: {fileID: 0}
    - target: {fileID: 4273250617847128, guid: f383356d4eb91f44daddce1e70077112, type: 3}
      propertyPath: m_LocalRotation.x
      value: -0.00000003774895
      objectReference: {fileID: 0}
    - target: {fileID: 4273250617847128, guid: f383356d4eb91f44daddce1e70077112, type: 3}
      propertyPath: m_LocalRotation.y
      value: 0
      objectReference: {fileID: 0}
    - target: {fileID: 4273250617847128, guid: f383356d4eb91f44daddce1e70077112, type: 3}
      propertyPath: m_LocalRotation.z
      value: -0
      objectReference: {fileID: 0}
    m_RemovedComponents: []
  m_SourcePrefab: {fileID: 100100000, guid: f383356d4eb91f44daddce1e70077112, type: 3}
--- !u!1001 &1981787774
PrefabInstance:
  m_ObjectHideFlags: 0
  serializedVersion: 2
  m_Modification:
    m_TransformParent: {fileID: 0}
    m_Modifications:
    - target: {fileID: 4677605369431854, guid: 28dd981650691bf4b998a5570c7f03a2, type: 3}
      propertyPath: m_RootOrder
      value: 4
      objectReference: {fileID: 0}
    - target: {fileID: 4677605369431854, guid: 28dd981650691bf4b998a5570c7f03a2, type: 3}
      propertyPath: m_LocalPosition.x
      value: -6
      objectReference: {fileID: 0}
    - target: {fileID: 4677605369431854, guid: 28dd981650691bf4b998a5570c7f03a2, type: 3}
      propertyPath: m_LocalPosition.y
      value: -2.07
      objectReference: {fileID: 0}
    - target: {fileID: 4677605369431854, guid: 28dd981650691bf4b998a5570c7f03a2, type: 3}
      propertyPath: m_LocalPosition.z
      value: 2.5645986
      objectReference: {fileID: 0}
    - target: {fileID: 4677605369431854, guid: 28dd981650691bf4b998a5570c7f03a2, type: 3}
      propertyPath: m_LocalRotation.w
      value: 1
      objectReference: {fileID: 0}
    - target: {fileID: 4677605369431854, guid: 28dd981650691bf4b998a5570c7f03a2, type: 3}
      propertyPath: m_LocalRotation.x
      value: -0.00000003774895
      objectReference: {fileID: 0}
    - target: {fileID: 4677605369431854, guid: 28dd981650691bf4b998a5570c7f03a2, type: 3}
      propertyPath: m_LocalRotation.y
      value: 0
      objectReference: {fileID: 0}
    - target: {fileID: 4677605369431854, guid: 28dd981650691bf4b998a5570c7f03a2, type: 3}
      propertyPath: m_LocalRotation.z
      value: -0
      objectReference: {fileID: 0}
    m_RemovedComponents: []
  m_SourcePrefab: {fileID: 100100000, guid: 28dd981650691bf4b998a5570c7f03a2, type: 3}
--- !u!1 &2018462066
GameObject:
  m_ObjectHideFlags: 0
  m_CorrespondingSourceObject: {fileID: 0}
  m_PrefabInstance: {fileID: 0}
  m_PrefabAsset: {fileID: 0}
  serializedVersion: 6
  m_Component:
  - component: {fileID: 2018462068}
  - component: {fileID: 2018462067}
  m_Layer: 0
  m_Name: Directional Light
  m_TagString: Untagged
  m_Icon: {fileID: 0}
  m_NavMeshLayer: 0
  m_StaticEditorFlags: 0
  m_IsActive: 1
--- !u!108 &2018462067
Light:
  m_ObjectHideFlags: 0
  m_CorrespondingSourceObject: {fileID: 0}
  m_PrefabInstance: {fileID: 0}
  m_PrefabAsset: {fileID: 0}
  m_GameObject: {fileID: 2018462066}
  m_Enabled: 1
  serializedVersion: 10
  m_Type: 1
  m_Shape: 0
  m_Color: {r: 1, g: 0.95686275, b: 0.8392157, a: 1}
  m_Intensity: 1
  m_Range: 10
  m_SpotAngle: 30
  m_InnerSpotAngle: 21.80208
  m_CookieSize: 10
  m_Shadows:
    m_Type: 2
    m_Resolution: -1
    m_CustomResolution: -1
    m_Strength: 1
    m_Bias: 0.05
    m_NormalBias: 0.4
    m_NearPlane: 0.2
    m_CullingMatrixOverride:
      e00: 1
      e01: 0
      e02: 0
      e03: 0
      e10: 0
      e11: 1
      e12: 0
      e13: 0
      e20: 0
      e21: 0
      e22: 1
      e23: 0
      e30: 0
      e31: 0
      e32: 0
      e33: 1
    m_UseCullingMatrixOverride: 0
  m_Cookie: {fileID: 0}
  m_DrawHalo: 0
  m_Flare: {fileID: 0}
  m_RenderMode: 0
  m_CullingMask:
    serializedVersion: 2
    m_Bits: 4294967295
  m_RenderingLayerMask: 1
  m_Lightmapping: 4
  m_LightShadowCasterMode: 0
  m_AreaSize: {x: 1, y: 1}
  m_BounceIntensity: 1
  m_ColorTemperature: 6570
  m_UseColorTemperature: 0
  m_BoundingSphereOverride: {x: 0, y: 0, z: 0, w: 0}
  m_UseBoundingSphereOverride: 0
  m_UseViewFrustumForShadowCasterCull: 1
  m_ShadowRadius: 0
  m_ShadowAngle: 0
--- !u!4 &2018462068
Transform:
  m_ObjectHideFlags: 0
  m_CorrespondingSourceObject: {fileID: 0}
  m_PrefabInstance: {fileID: 0}
  m_PrefabAsset: {fileID: 0}
  m_GameObject: {fileID: 2018462066}
  m_LocalRotation: {x: 0.31454074, y: 0.18694398, z: 0.28225932, w: 0.8868178}
  m_LocalPosition: {x: 0, y: 3, z: 0}
  m_LocalScale: {x: 1, y: 1, z: 1}
  m_Children: []
  m_Father: {fileID: 0}
  m_RootOrder: 0
  m_LocalEulerAnglesHint: {x: 26.894001, y: 34.812, z: 43.884003}
--- !u!1001 &2111338776
PrefabInstance:
  m_ObjectHideFlags: 0
  serializedVersion: 2
  m_Modification:
    m_TransformParent: {fileID: 0}
    m_Modifications:
    - target: {fileID: 4516753683747122, guid: 237278d4519951c48888576c213b513f, type: 3}
      propertyPath: m_RootOrder
      value: 3
      objectReference: {fileID: 0}
    - target: {fileID: 4516753683747122, guid: 237278d4519951c48888576c213b513f, type: 3}
      propertyPath: m_LocalPosition.x
      value: -3.3539028
      objectReference: {fileID: 0}
    - target: {fileID: 4516753683747122, guid: 237278d4519951c48888576c213b513f, type: 3}
      propertyPath: m_LocalPosition.y
      value: -2.51
      objectReference: {fileID: 0}
    - target: {fileID: 4516753683747122, guid: 237278d4519951c48888576c213b513f, type: 3}
      propertyPath: m_LocalPosition.z
      value: 4.1
      objectReference: {fileID: 0}
    - target: {fileID: 4516753683747122, guid: 237278d4519951c48888576c213b513f, type: 3}
      propertyPath: m_LocalRotation.w
      value: 1
      objectReference: {fileID: 0}
    - target: {fileID: 4516753683747122, guid: 237278d4519951c48888576c213b513f, type: 3}
      propertyPath: m_LocalRotation.x
      value: -0.00000003774895
      objectReference: {fileID: 0}
    - target: {fileID: 4516753683747122, guid: 237278d4519951c48888576c213b513f, type: 3}
      propertyPath: m_LocalRotation.y
      value: 0
      objectReference: {fileID: 0}
    - target: {fileID: 4516753683747122, guid: 237278d4519951c48888576c213b513f, type: 3}
      propertyPath: m_LocalRotation.z
      value: -0
      objectReference: {fileID: 0}
    m_RemovedComponents: []
  m_SourcePrefab: {fileID: 100100000, guid: 237278d4519951c48888576c213b513f, type: 3}
