%YAML 1.1
%TAG !u! tag:unity3d.com,2011:
--- !u!1 &400191092
GameObject:
  m_ObjectHideFlags: 0
  m_CorrespondingSourceObject: {fileID: 0}
  m_PrefabInstance: {fileID: 0}
  m_PrefabAsset: {fileID: 0}
  serializedVersion: 6
  m_Component:
  - component: {fileID: 400191095}
  - component: {fileID: 400191094}
  - component: {fileID: 400191093}
  - component: {fileID: 5644641932336280092}
  - component: {fileID: 7518900904522505786}
  m_Layer: 0
  m_Name: RadioVintage
  m_TagString: Untagged
  m_Icon: {fileID: 0}
  m_NavMeshLayer: 0
  m_StaticEditorFlags: 0
  m_IsActive: 1
--- !u!4 &400191095
Transform:
  m_ObjectHideFlags: 0
  m_CorrespondingSourceObject: {fileID: 0}
  m_PrefabInstance: {fileID: 0}
  m_PrefabAsset: {fileID: 0}
  m_GameObject: {fileID: 400191092}
  m_LocalRotation: {x: 0, y: 0, z: 0, w: 1}
  m_LocalPosition: {x: 0, y: 0, z: 0}
  m_LocalScale: {x: 1, y: 1, z: 1}
  m_Children: []
  m_Father: {fileID: 0}
  m_RootOrder: 0
  m_LocalEulerAnglesHint: {x: 0, y: 0, z: 0}
--- !u!33 &400191094
MeshFilter:
  m_ObjectHideFlags: 0
  m_CorrespondingSourceObject: {fileID: 0}
  m_PrefabInstance: {fileID: 0}
  m_PrefabAsset: {fileID: 0}
  m_GameObject: {fileID: 400191092}
  m_Mesh: {fileID: 4300000, guid: ba1a162cc5f0e4e04b6003af0c5ffd63, type: 3}
--- !u!23 &400191093
MeshRenderer:
  m_ObjectHideFlags: 0
  m_CorrespondingSourceObject: {fileID: 0}
  m_PrefabInstance: {fileID: 0}
  m_PrefabAsset: {fileID: 0}
  m_GameObject: {fileID: 400191092}
  m_Enabled: 1
  m_CastShadows: 2
  m_ReceiveShadows: 1
  m_DynamicOccludee: 1
  m_StaticShadowCaster: 0
  m_MotionVectors: 1
  m_LightProbeUsage: 1
  m_ReflectionProbeUsage: 1
  m_RayTracingMode: 2
  m_RayTraceProcedural: 0
  m_RenderingLayerMask: 1
  m_RendererPriority: 0
  m_Materials:
  - {fileID: 2100000, guid: cde036104f974478088483273be55188, type: 2}
  - {fileID: 2100000, guid: 4c117d6e66f374a0ebe8ac40d0855372, type: 2}
  - {fileID: 2100000, guid: 662e244f7b80a4a40b922821ceb6b5b5, type: 2}
  - {fileID: 2100000, guid: 761547a2c73f74dae8e3102d224d0170, type: 2}
  - {fileID: 2100000, guid: 4c117d6e66f374a0ebe8ac40d0855372, type: 2}
  - {fileID: 2100000, guid: cde036104f974478088483273be55188, type: 2}
  - {fileID: 2100000, guid: 8e4f0588e1a7343e796a7a2b92530695, type: 2}
  - {fileID: 2100000, guid: 8c68da60ff9784b88832fb83d3c6482f, type: 2}
  m_StaticBatchInfo:
    firstSubMesh: 0
    subMeshCount: 0
  m_StaticBatchRoot: {fileID: 0}
  m_ProbeAnchor: {fileID: 0}
  m_LightProbeVolumeOverride: {fileID: 0}
  m_ScaleInLightmap: 1
  m_ReceiveGI: 1
  m_PreserveUVs: 0
  m_IgnoreNormalsForChartDetection: 0
  m_ImportantGI: 0
  m_StitchLightmapSeams: 0
  m_SelectedEditorRenderState: 3
  m_MinimumChartSize: 4
  m_AutoUVMaxDistance: 0.5
  m_AutoUVMaxAngle: 89
  m_LightmapParameters: {fileID: 0}
  m_SortingLayerID: 0
  m_SortingLayer: 0
  m_SortingOrder: 0
  m_AdditionalVertexStreams: {fileID: 0}
--- !u!114 &5644641932336280092
MonoBehaviour:
  m_ObjectHideFlags: 0
  m_CorrespondingSourceObject: {fileID: 0}
  m_PrefabInstance: {fileID: 0}
  m_PrefabAsset: {fileID: 0}
  m_GameObject: {fileID: 400191092}
  m_Enabled: 1
  m_EditorHideFlags: 0
  m_Script: {fileID: 11500000, guid: 8b7080bdbd803634aa4d27c9d8e5dd7b, type: 3}
  m_Name: 
  m_EditorClassIdentifier: 
  objectsWithInteractions: []
  showDebugMessages: 0
  battery1Inserted: 0
  battery2Inserted: 0
  isPlaying: 0
  correctClue: {fileID: 0}
  incorrectStatic: {fileID: 0}
  correctPin: 0
--- !u!65 &7518900904522505786
BoxCollider:
  m_ObjectHideFlags: 0
  m_CorrespondingSourceObject: {fileID: 0}
  m_PrefabInstance: {fileID: 0}
  m_PrefabAsset: {fileID: 0}
  m_GameObject: {fileID: 400191092}
  m_Material: {fileID: 0}
  m_IsTrigger: 0
  m_Enabled: 1
  serializedVersion: 2
  m_Size: {x: 0.4875766, y: 0.346534, z: 0.27332115}
  m_Center: {x: 0.0016541108, y: 0.13485155, z: -0.000049866736}
